Research Methods HS22 - 41 Rauman 2: Übung C
…
points: Ein Punktdatensatz aus der Class sf

cellsize: Die Zellgrösse des output-Rasters

bandwith: Der Suchradius für die Dichteberechnung

extent (optional): Der Perimeter, in dem die Dichteverteilung berechnet werden soll. Wenn kein Perimeter angegeben wird, wird die “bounding box” von points genutzt.

Wenn wir nun mit my_kde() die Dichteverteilung berechnen, erhalten wir ein data.frame mit X und Y Koordinaten sowie eine Spalte value zurück. Nutzt diese drei Spalten mit geom_raster() um eure Daten mit ggplot zu visualisieren (aes(x = X, y = Y, fill = value).

rotmilan_kde <- my_kde(points = rotmilan,cellsize = 1000, bandwith = 10000, extent = schweiz)

rotmilan_kde

# A tibble: 77,129 × 3
          X        Y value
      <dbl>    <dbl> <dbl>
 1 2485410. 1075268.     0
 2 2485410. 1076268.     0
 3 2485410. 1077268.     0
 4 2485410. 1078268.     0
 5 2485410. 1079268.     0
 6 2485410. 1080268.     0
 7 2485410. 1081268.     0
 8 2485410. 1082268.     0
 9 2485410. 1083268.     0
10 2485410. 1084268.     0
# … with 77,119 more rows
…
