Research Methods - 8 Infovis 1: Demo A
…
Split Apply Combine

Im obigen Plot fällt auf, dass stündliche Werte eine zu hohe Auflösung ist, wenn wir daten über 2 Jahre visualisieren. Mit Split Apply Combine (PrePro 3) können wir die Auflösung unserer Daten verändern:

temperature_day <- temperature_long %>%
  mutate(time = as.Date(time)) 

temperature_day

# A tibble: 35,088 × 3
   time       station  temp
   <date>     <chr>   <dbl>
 1 2000-01-01 SHA       0.2
 2 2000-01-01 ZER      -8.8
 3 2000-01-01 SHA       0.3
 4 2000-01-01 ZER      -8.7
 5 2000-01-01 SHA       0.3
 6 2000-01-01 ZER      -9  
 7 2000-01-01 SHA       0.3
 8 2000-01-01 ZER      -8.7
 9 2000-01-01 SHA       0.4
10 2000-01-01 ZER      -8.5
# … with 35,078 more rows
…
