Research Methods HS22 - 35 Stat5: Lösung 2
…
df <- nova # kopiert originaler Datensatz

# Genereiert eine Dummyvariable: Fleisch 1, kein Fleisch 0
df %>%
  # entfernt Personen die sich ein Buffet Teller gekauft
  filter(label_content != "Hot and Cold") %>%
  # ihr könnt keine Angabe vernachlässigen, sind (nur) 54 Personen
  filter(age_group != "keine Angaben") %>% 
  mutate(label_content = str_replace_all(.$label_content, c("Fisch|Geflügel"),"Fleisch")) %>%   
  mutate(meat = if_else(.$label_content == "Fleisch", 1, 0)) %>%
  # setzt andere Reihenfolge für die Hochschulzugehörigkeit, nur für die Interpretation
  # nützlich: neu Referenzkategorie Studierende (vorher Mitarbeitende)
  mutate(member = factor(.$member, levels = c("Studierende", "Mitarbeitende")))  

# A tibble: 17,900 × 33
     ccrs trans…¹ trans_date          date       artic…² art_c…³ qty_w…⁴ card_…⁵
    <dbl>   <dbl> <dttm>              <date>     <chr>   <chr>     <dbl>   <dbl>
 1 1.00e9 2592157 2017-12-18 11:32:55 2017-12-18 World   A10015        1  904836
 2 1.00e9 2588398 2017-12-15 12:11:28 2017-12-15 Local … A10026        1  904836
 3 1.00e9 2606451 2017-12-21 11:47:28 2017-12-21 Favori… A10001        1  904836
 4 1.00e9 2584018 2017-12-14 12:15:41 2017-12-14 Favori… A10001        1  904836
 5 1.00e9 2538608 2017-12-01 11:19:21 2017-12-01 World   A10015        1  904836
 6 1.00e9 2457691 2017-11-09 11:31:57 2017-11-09 Favori… A10001        1  904836
 7 1.00e9 2508658 2017-11-23 11:21:51 2017-11-23 Local … A10025        1  904836
 8 1.00e9 2558540 2017-12-07 11:14:31 2017-12-07 Favori… A10001        1  904836
 9 1.00e9 2315676 2017-10-02 11:18:03 2017-10-02 World   A10015        1  904836
10 1.00e9 2458590 2017-11-09 12:07:24 2017-11-09 Kitchen A10012        1  913860
# … with 17,890 more rows, 25 more variables: gender <chr>, member <fct>,
#   rab_descript <chr>, total_amount <dbl>, price_article <dbl>,
#   prop_price <dbl>, pay_description <chr>, shop_description <chr>,
#   week <dbl>, year <dbl>, semwk <dbl>, cycle <dbl>, condit <chr>,
#   meal_name_comp <chr>, meal_name <chr>, label_content <chr>, tot_ubp <dbl>,
#   tot_gwp <dbl>, buffet_animal_comp <dbl>, outside <dbl>, sun <dbl>,
#   clouds <dbl>, rainfall <dbl>, age_group <chr>, meat <dbl>, and …
…
