Research Methods HS22 - 51 Rauman 1: Übung A
…
Aufgabe 3: Koordinatensyteme transformieren

In der vorherigen Übung haben wir das bestehende Koordinatensystem zugewiesen. Dabei haben wir die bestehenden Koordinaten (in der Spalte geom) nicht manipuliert. Ganz anders ist eine Transformation der Daten von einem Koordinatensystem in das andere. Bei einer Transformation werden die Koordinaten in das neue Koordinatensystem umgerechnet und somit manipuliert. Aus praktischen Gründen wollen  wir all unsere Daten ins neue Schweizer Koordinatensystem CH1903+ LV95 transfomieren. Transformiere den Datensatz kantone mit st_transform()in CH1903+ LV95, nutze dafür den korrekten EPSG-Code.

Vor der Transformation (betrachte die Attribute Bounding box sowie Geodetic CRS):

kantone

Simple feature collection with 51 features and 6 fields
Geometry type: POLYGON
Dimension:     XY
Bounding box:  xmin: 5.955902 ymin: 45.81796 xmax: 10.49217 ymax: 47.80845
Geodetic CRS:  WGS 84
# A tibble: 51 × 7
   NAME       KANTON…¹ SEE_F…² KANTO…³ KT_TEIL EINWO…⁴                      geom
 * <chr>         <int>   <dbl>   <dbl> <chr>     <int>             <POLYGON [°]>
 1 Graubünden       18      NA  710530 0        197888 ((8.877053 46.81291, 8.8…
 2 Bern              2   11897  595952 1       1031126 ((7.153522 46.98628, 7.1…
 3 Valais           23    1060  522463 0        341463 ((8.477625 46.52762, 8.4…
 4 Vaud             22   39097  321201 1        793129 ((6.779825 46.85296, 6.7…
 5 Ticino           21    7147  281216 0        353709 ((8.477625 46.52762, 8.4…
 6 St. Gallen       17    7720  202820 1        504686 ((8.808609 47.22009, 8.7…
 7 Zürich            1    6811  172894 0       1504346 ((8.410084 47.24837, 8.4…
 8 Fribourg         10    7818  167142 1        315074 ((7.040344 46.97952, 7.0…
 9 Luzern            3    6438  149352 0        406506 ((8.468167 46.99652, 8.4…
10 Aargau           19     870  140380 1        670988 ((8.410084 47.24837, 8.4…
# … with 41 more rows, and abbreviated variable names ¹​KANTONSNUM, ²​SEE_FLAECH,
#   ³​KANTONSFLA, ⁴​EINWOHNERZ

kantone <- st_transform(kantone, 2056)

Nach der Transformation (betrachte die Attribute Bounding box sowie Projected CRS):

kantone

Simple feature collection with 51 features and 6 fields
Geometry type: POLYGON
Dimension:     XY
Bounding box:  xmin: 5.955902 ymin: 45.81796 xmax: 10.49217 ymax: 47.80845
Geodetic CRS:  WGS 84
# A tibble: 51 × 7
   NAME       KANTON…¹ SEE_F…² KANTO…³ KT_TEIL EINWO…⁴                      geom
 * <chr>         <int>   <dbl>   <dbl> <chr>     <int>             <POLYGON [°]>
 1 Graubünden       18      NA  710530 0        197888 ((8.877053 46.81291, 8.8…
 2 Bern              2   11897  595952 1       1031126 ((7.153522 46.98628, 7.1…
 3 Valais           23    1060  522463 0        341463 ((8.477625 46.52762, 8.4…
 4 Vaud             22   39097  321201 1        793129 ((6.779825 46.85296, 6.7…
 5 Ticino           21    7147  281216 0        353709 ((8.477625 46.52762, 8.4…
 6 St. Gallen       17    7720  202820 1        504686 ((8.808609 47.22009, 8.7…
 7 Zürich            1    6811  172894 0       1504346 ((8.410084 47.24837, 8.4…
 8 Fribourg         10    7818  167142 1        315074 ((7.040344 46.97952, 7.0…
 9 Luzern            3    6438  149352 0        406506 ((8.468167 46.99652, 8.4…
10 Aargau           19     870  140380 1        670988 ((8.410084 47.24837, 8.4…
# … with 41 more rows, and abbreviated variable names ¹​KANTONSNUM, ²​SEE_FLAECH,
#   ³​KANTONSFLA, ⁴​EINWOHNERZ
…
