Research Methods HS22 - 8 Infovis 1: Demo A
…
Abbildung 8.7: Generierter Plot

Split Apply Combine

Im obigen Plot fällt auf, dass stündliche Werte eine zu hohe Auflösung ist, wenn wir daten über 2 Jahre visualisieren. Mit Split Apply Combine (PrePro 3) können wir die Auflösung unserer Daten verändern:

temperature_day <- temperature_long |>
  mutate(time = as.Date(time)) 

temperature_day

# A tibble: 35,088 × 3
   time       station  temp
   <date>     <chr>   <dbl>
 1 2000-01-01 SHA       0.2
 2 2000-01-01 ZER      -8.8
 3 2000-01-01 SHA       0.3
 4 2000-01-01 ZER      -8.7
 5 2000-01-01 SHA       0.3
 6 2000-01-01 ZER      -9  
 7 2000-01-01 SHA       0.3
 8 2000-01-01 ZER      -8.7
 9 2000-01-01 SHA       0.4
10 2000-01-01 ZER      -8.5
# … with 35,078 more rows

temperature_day <- temperature_day |>
  group_by(station, time) |>
  summarise(temp = mean(temp))

temperature_day  

# A tibble: 1,462 × 3
# Groups:   station [2]
   station time        temp
   <chr>   <date>     <dbl>
 1 SHA     2000-01-01  1.25
 2 SHA     2000-01-02  1.73
 3 SHA     2000-01-03  1.59
 4 SHA     2000-01-04  1.78
 5 SHA     2000-01-05  4.66
 6 SHA     2000-01-06  3.49
 7 SHA     2000-01-07  3.87
 8 SHA     2000-01-08  3.28
 9 SHA     2000-01-09  3.24
10 SHA     2000-01-10  3.24
# … with 1,452 more rows
…
